…
```r
# Investigate there is nothing unusual about these votes
UnaccountedVotes <- NoCommunity %>%
  group_by(Office, Ward, Ballot.Name) %>%
  summarize(Votes2 = sum(Votes)) %>%
  arrange(desc(Votes2), .by_group = TRUE) %>%
  print()
```

```
## `summarise()` has grouped output by 'Office', 'Ward'. You can override using the `.groups` argument.
```

```
## # A tibble: 226 x 4
## # Groups:   Office, Ward [29]
##    Office      Ward Ballot.Name           Votes2
##    <chr>      <int> <chr>                  <int>
##  1 COUNCILLOR     1 SUTHERLAND, Ward         653
##  2 COUNCILLOR     1 BLISS TAYLOR, Coral      260
##  3 COUNCILLOR     1 BLATCH, Chris            117
##  4 COUNCILLOR     1 CHRISTENSEN, Cole         53
##  5 COUNCILLOR     1 KHAN, Cam                 35
##  6 COUNCILLOR     2 MAGLIOCCA, Joe           301
##  7 COUNCILLOR     2 WYNESS, Jennifer         242
##  8 COUNCILLOR     2 MAITLAND, Christopher     71
##  9 COUNCILLOR     2 GEORGEOU, George          19
## 10 COUNCILLOR     3 GONDEK, Jyoti            117
## # ... with 216 more rows
```
…
```
## # A tibble: 75 x 11
## # Groups:   Voting.Station [15]
##     Ward Ballot.Name Votes percent Voting.Station.~ comm_code name_2
##    <int> <chr>       <int>   <dbl> <chr>            <chr>     <chr> 
##  1    11 DICKINSON,~   404    19.5 St. Mary's Pari~ MIS       MISSI~
##  2    11 DICKINSON,~   183    15.4 Park Hill/ Stan~ PKH       PARKH~
##  3    11 DICKINSON,~   102    10.4 Altadore Elemen~ ALT       ALTAD~
##  4    11 DICKINSON,~   354    12.3 Elboya School    EYA       ELBOYA
##  5    11 DICKINSON,~   155     6.4 Jennie Elliott ~ LKV       LAKEV~
##  6    11 DICKINSON,~   366    18.4 Haysboro School  HAY       HAYSB~
##  7    11 DICKINSON,~   347    16.9 St. Augustine E~ KIN       KINGS~
##  8    11 DICKINSON,~   234    11.6 Louis Riel Scho~ OAK       OAKRI~
##  9    11 DICKINSON,~   176    10.5 Nellie McClung ~ PAL       PALLI~
## 10    11 DICKINSON,~   177    10.5 Cedarbrae School CED       CEDAR~
## # ... with 65 more rows, and 4 more variables: Voting.Station <int>,
## #   Voting.Station.Type <chr>, Office <chr>, VSTN_ID <int>
```
…
